{
  "EDITOR_STATE": {
    "allProjectFiles": {
      "8002eb69-57d1-4003-805f-c0fa6b86beec": {
        "id": "8002eb69-57d1-4003-805f-c0fa6b86beec",
        "parent": null,
        "name": "Test_1",
        "type": "DIRECTORY",
        "isDirectory": true,
        "children": [
          "7b87b809-fdf3-4673-b736-fefe3cf5246a",
          "e71da0b0-3f5d-4083-af2e-27c9481ea420"
        ],
        "isRemovable": false,
        "filePath": "Test_1"
      },
      "7b87b809-fdf3-4673-b736-fefe3cf5246a": {
        "id": "7b87b809-fdf3-4673-b736-fefe3cf5246a",
        "parent": "8002eb69-57d1-4003-805f-c0fa6b86beec",
        "name": "function.js",
        "type": "LAMBDA_FILE",
        "isDirectory": false,
        "children": [],
        "isRemovable": true,
        "filePath": "Test_1/function.js",
        "code": "let google = require('googleapis').google;\nlet _auth = require('./Authorizer');\nconst pubsub = google.pubsub('v1');\n\nexports.handler = function (request, response) {\n    pubsub.projects.topics.subscriptions.list({\n        topic: `projects/${process.env.GCP_PROJECT}/topics/SigmaIncoming`,\n        pageSize: 10\n    })\n        .then(response => {\n            console.log(response.data);  // successful response\n            /*\n            response.data = {\n                \"subscriptions\": [\n                    \"projects/<project>/subscriptions/<subscription-1>\",\n                    \"projects/<project>/subscriptions/<subscription-2>\",\n                    ...\n                ]\n            }\n            */\n        })\n        .catch(err => {\n            console.log(err, err.stack); // an error occurred\n        });\n\n    response.send({ \"message\": \"Successfully executed\" });\n}",
        "triggers": [
          {
            "resourceName": "http-trigger",
            "config": {}
          }
        ],
        "config": {
          "runtime": "nodejs8.10",
          "timeout": 60,
          "memory": 128,
          "triggerType": 0
        }
      },
      "82bd57e6-0d73-4d04-aad2-7c4767f987ca": {
        "id": "82bd57e6-0d73-4d04-aad2-7c4767f987ca",
        "parent": null,
        "name": "index.js",
        "type": "JS_FILE",
        "isDirectory": false,
        "children": [],
        "isRemovable": false,
        "filePath": "index.js",
        "code": "// This file is used to register all your cloud functions in GCP.\n// DO NOT EDIT/DELETE THIS, UNLESS YOU KNOW WHAT YOU ARE DOING.\n\nexports.Test1function = require(\"./Test_1/function.js\").handler;",
        "triggers": []
      },
      "e71da0b0-3f5d-4083-af2e-27c9481ea420": {
        "id": "e71da0b0-3f5d-4083-af2e-27c9481ea420",
        "parent": "8002eb69-57d1-4003-805f-c0fa6b86beec",
        "name": "Authorizer.js",
        "type": "JS_FILE",
        "isDirectory": false,
        "children": [],
        "isRemovable": true,
        "filePath": "Test_1/Authorizer.js",
        "code": "const google = require(\"googleapis\").google;\n\ngoogle.options({auth: new google.auth.Compute()});",
        "triggers": []
      }
    },
    "deletedFiles": [],
    "rootNode": "8002eb69-57d1-4003-805f-c0fa6b86beec",
    "openFiles": [
      "7b87b809-fdf3-4673-b736-fefe3cf5246a"
    ],
    "currentFileId": "7b87b809-fdf3-4673-b736-fefe3cf5246a",
    "resources": {
      "http-trigger": {
        "name": "http-trigger",
        "type": "http-trigger",
        "config": {},
        "globallyEditable": false
      },
      "pubsubSigmaIncoming": {
        "name": "pubsubSigmaIncoming",
        "type": "pubsub",
        "config": {
          "mode": 1,
          "topic": {
            "name": "SigmaIncoming",
            "subscriptions": []
          }
        },
        "globallyEditable": false
      }
    },
    "envVariables": [],
    "packageJSON": {
      "dependencies": {
        "googleapis": {
          "name": "googleapis",
          "version": "29.0.0",
          "notRemovable": false
        }
      }
    },
    "lambdaId": "7b87b809-fdf3-4673-b736-fefe3cf5246a"
  },
  "PROJECT_META": {
    "projectName": "Test_1",
    "projectDescription": "Testing 1",
    "projectVersion": "1.0.0",
    "projectRegion": "us-east1",
    "platform": "GCP",
    "platformRegions": {},
    "lastSave": 1544431318414
  },
  "VCS_STATE": {
    "provider": "BitBucket",
    "repo": {
      "name": "Test_1",
      "url": "https://bitbucket.org/KumudikaR/test-1"
    }
  }
}